module github.com/hkashko97/library-system

go 1.19

require (
	github.com/gorilla/mux v1.8.0
	github.com/jinzhu/gorm v1.9.16
	github.com/joho/godotenv v1.4.0
)

require (
	github.com/go-sql-driver/mysql v1.5.0 // indirect
	github.com/jinzhu/inflection v1.0.0 // indirect
)
